tb/sync_4p.vcd
$date
	Thu Aug 10 14:58:32 2023
$end
$version
	Icarus Verilog
$end
$timescale
	1s
$end
$scope module tb $end
$var wire 1 ! o_valid $end
$var wire 8 " o_data [7:0] $end
$var wire 1 # busy $end
$var reg 1 $ i_clk $end
$var reg 8 % i_data [7:0] $end
$var reg 1 & i_valid $end
$var reg 1 ' o_clk $end
$var reg 8 ( ref_data [7:0] $end
$var reg 1 ) rstn $end
$var integer 32 * i [31:0] $end
$var integer 32 + i_count [31:0] $end
$var integer 32 , o_count [31:0] $end
$scope module dut $end
$var wire 1 $ i_clk $end
$var wire 8 - i_data [7:0] $end
$var wire 1 ) i_rstn $end
$var wire 1 & i_valid $end
$var wire 1 ' o_clk $end
$var wire 1 ) o_rstn $end
$var reg 1 . ack $end
$var reg 1 / ackSync0 $end
$var reg 1 0 ackSync1 $end
$var reg 1 # busy $end
$var reg 8 1 data_sync [7:0] $end
$var reg 1 2 next_state_ack $end
$var reg 2 3 next_state_req [1:0] $end
$var reg 8 4 o_data [7:0] $end
$var reg 1 ! o_valid $end
$var reg 1 5 req $end
$var reg 1 6 reqSync0 $end
$var reg 1 7 reqSync1 $end
$var reg 1 8 state_ack $end
$var reg 2 9 state_req [1:0] $end
$upscope $end
$scope task send_data $end
$upscope $end
$upscope $end
$enddefinitions $end
#0
$dumpvars
bx 9
x8
x7
x6
x5
bx 4
bx 3
x2
bx 1
x0
x/
x.
bx -
b0 ,
b0 +
bx *
1)
bx (
0'
x&
bx %
0$
x#
bx "
x!
$end
#1
0.
02
05
0#
b0 3
0!
08
07
06
00
0/
b0 9
0)
#3
b100100 (
b0 *
1)
#5
b1 3
0#
b100100 %
b100100 -
1&
1$
#10
0$
#13
1'
#15
15
1#
0&
b100100 1
b1 9
b10000001 (
b1 *
b1 +
1$
#20
0$
#25
b10000001 %
b10000001 -
1&
1$
#26
0'
#30
0$
#35
0&
b1001 (
b10 *
1$
#39
16
1'
#40
0$
#45
b1001 %
b1001 -
1&
1$
#50
0$
#52
0'
#55
0&
b1100011 (
b11 *
1$
#60
0$
#65
12
b1100011 %
b1100011 -
1&
17
1$
1'
#70
0$
#75
0&
b1101 (
b100 *
1$
#78
0'
#80
0$
#85
b1101 %
b1101 -
1&
1$
#90
0$
#91
1.
1!
b100100 "
b100100 4
18
1'
#94
b1 ,
#95
0&
1/
b10001101 (
b101 *
1$
#100
0$
#104
0'
#105
b11 3
b10001101 %
b10001101 -
1&
10
1$
#110
0$
#115
05
0&
b11 9
b1100101 (
b110 *
1$
#117
0!
06
1'
#120
0$
#125
b1100101 %
b1100101 -
1&
1$
#130
0$
0'
#135
0&
b10010 (
b111 *
1$
#140
0$
#143
02
07
1'
#145
b10010 %
b10010 -
1&
1$
#150
0$
#155
0&
b1 (
b1000 *
1$
#156
0'
#160
0$
#165
b1 %
b1 -
1&
1$
#169
0.
08
1'
#170
0$
#175
0&
0/
b1101 (
b1001 *
1$
#180
0$
#182
0'
#185
b0 3
b1101 %
b1101 -
1&
00
1$
#190
0$
#195
0#
0&
b0 9
b1110110 (
b1010 *
1$
1'
#200
0$
#205
b1 3
0#
b1110110 %
b1110110 -
1&
1$
#208
0'
#210
0$
#215
15
1#
0&
b1110110 1
b1 9
b111101 (
b1011 *
b10 +
1$
#220
0$
#221
16
1'
#225
b111101 %
b111101 -
1&
1$
#230
0$
#234
0'
#235
0&
b11101101 (
b1100 *
1$
#240
0$
#245
b11101101 %
b11101101 -
1&
1$
#247
12
17
1'
#250
0$
#255
0&
b10001100 (
b1101 *
1$
#260
0$
0'
#265
b10001100 %
b10001100 -
1&
1$
#270
0$
#273
1.
1!
b1110110 "
b1110110 4
18
1'
#275
0&
1/
b11111001 (
b1110 *
1$
#276
b10 ,
#280
0$
#285
b11 3
b11111001 %
b11111001 -
1&
10
1$
#286
0'
#290
0$
#295
05
0&
b11 9
b11000110 (
b1111 *
1$
#299
0!
06
1'
#300
0$
#305
b11000110 %
b11000110 -
1&
1$
#310
0$
#312
0'
#315
0&
b11000101 (
b10000 *
1$
#320
0$
#325
02
b11000101 %
b11000101 -
1&
07
1$
1'
#330
0$
#335
0&
b10101010 (
b10001 *
1$
#338
0'
#340
0$
#345
b10101010 %
b10101010 -
1&
1$
#350
0$
#351
0.
08
1'
#355
0&
0/
b11100101 (
b10010 *
1$
#360
0$
#364
0'
#365
b0 3
b11100101 %
b11100101 -
1&
00
1$
#370
0$
#375
0#
0&
b0 9
b1110111 (
b10011 *
1$
#377
1'
#380
0$
#385
b1 3
0#
b1110111 %
b1110111 -
1&
1$
#390
0$
0'
#395
15
1#
0&
b1110111 1
b1 9
b10010 (
b10100 *
b11 +
1$
#400
0$
#403
16
1'
#405
b10010 %
b10010 -
1&
1$
#410
0$
#415
0&
b10001111 (
b10101 *
1$
#416
0'
#420
0$
#425
b10001111 %
b10001111 -
1&
1$
#429
12
17
1'
#430
0$
#435
0&
b11110010 (
b10110 *
1$
#440
0$
#442
0'
#445
b11110010 %
b11110010 -
1&
1$
#450
0$
#455
1.
0&
1!
b1110111 "
b1110111 4
18
b11001110 (
b10111 *
1$
1'
#458
b11 ,
#460
0$
#465
b11001110 %
b11001110 -
1&
1/
1$
#468
0'
#470
0$
#475
b11 3
0&
10
b11101000 (
b11000 *
1$
#480
0$
#481
0!
1'
#485
05
b11101000 %
b11101000 -
1&
b11 9
1$
#490
0$
#494
0'
#495
0&
b11000101 (
b11001 *
1$
#500
0$
#505
b11000101 %
b11000101 -
1&
1$
#507
06
1'
#510
0$
#515
0&
b1011100 (
b11010 *
1$
#520
0$
0'
#525
b1011100 %
b1011100 -
1&
1$
#530
0$
#533
02
07
1'
#535
0&
b10111101 (
b11011 *
1$
#540
0$
#545
b10111101 %
b10111101 -
1&
1$
#546
0'
#550
0$
#555
0&
b101101 (
b11100 *
1$
#559
0.
08
1'
#560
0$
#565
b101101 %
b101101 -
1&
0/
1$
#570
0$
#572
0'
#575
b0 3
0&
00
b1100101 (
b11101 *
1$
#580
0$
#585
b1 3
0#
b1100101 %
b1100101 -
1&
b0 9
1$
1'
#590
0$
#595
15
1#
0&
b1100101 1
b1 9
b1100011 (
b11110 *
b100 +
1$
#598
0'
#600
0$
#605
b1100011 %
b1100011 -
1&
1$
#610
0$
#611
16
1'
#615
0&
b1010 (
b11111 *
1$
#620
0$
#624
0'
#625
b1010 %
b1010 -
1&
1$
#630
0$
#635
0&
b10000000 (
b100000 *
1$
#637
12
17
1'
#640
0$
#645
b10000000 %
b10000000 -
1&
1$
#650
0$
0'
#655
0&
b100000 (
b100001 *
1$
#660
0$
#663
1.
1!
b1100101 "
b1100101 4
18
1'
#665
b100000 %
b100000 -
1&
1/
1$
#666
b100 ,
#670
0$
#675
b11 3
0&
10
b10101010 (
b100010 *
1$
#676
0'
#680
0$
#685
05
b10101010 %
b10101010 -
1&
b11 9
1$
#689
0!
06
1'
#690
0$
#695
0&
b10011101 (
b100011 *
1$
#700
0$
#702
0'
#705
b10011101 %
b10011101 -
1&
1$
#710
0$
#715
02
0&
07
b10010110 (
b100100 *
1$
1'
#720
0$
#725
b10010110 %
b10010110 -
1&
1$
#728
0'
#730
0$
#735
0&
b10011 (
b100101 *
1$
#740
0$
#741
0.
08
1'
#745
b10011 %
b10011 -
1&
0/
1$
#750
0$
#754
0'
#755
b0 3
0&
00
b1101 (
b100110 *
1$
#760
0$
#765
b1 3
0#
b1101 %
b1101 -
1&
b0 9
1$
#767
1'
#770
0$
#775
15
1#
0&
b1101 1
b1 9
b1010011 (
b100111 *
b101 +
1$
#780
0$
0'
#785
b1010011 %
b1010011 -
1&
1$
#790
0$
#793
16
1'
#795
0&
b1101011 (
b101000 *
1$
#800
0$
#805
b1101011 %
b1101011 -
1&
1$
#806
0'
#810
0$
#815
0&
b11010101 (
b101001 *
1$
#819
12
17
1'
#820
0$
#825
b11010101 %
b11010101 -
1&
1$
#830
0$
#832
0'
#835
0&
b10 (
b101010 *
1$
#840
0$
#845
1.
b10 %
b10 -
1&
1!
b1101 "
b1101 4
18
1$
1'
#848
b101 ,
#850
0$
#855
0&
1/
b10101110 (
b101011 *
1$
#858
0'
#860
0$
#865
b11 3
b10101110 %
b10101110 -
1&
10
1$
#870
0$
#871
0!
1'
#875
05
0&
b11 9
b11101 (
b101100 *
1$
#880
0$
#884
0'
#885
b11101 %
b11101 -
1&
1$
#890
0$
#895
0&
b11001111 (
b101101 *
1$
#897
06
1'
#900
0$
#905
b11001111 %
b11001111 -
1&
1$
#910
0$
0'
#915
0&
b100011 (
b101110 *
1$
#920
0$
#923
02
07
1'
#925
b100011 %
b100011 -
1&
1$
#930
0$
#935
0&
b1010 (
b101111 *
1$
#936
0'
#940
0$
#945
b1010 %
b1010 -
1&
1$
#949
0.
08
1'
#950
0$
#955
0&
0/
b11001010 (
b110000 *
1$
#960
0$
#962
0'
#965
b0 3
b11001010 %
b11001010 -
1&
00
1$
#970
0$
#975
0#
0&
b0 9
b111100 (
b110001 *
1$
1'
#980
0$
#985
b1 3
0#
b111100 %
b111100 -
1&
1$
#988
0'
#990
0$
#995
15
1#
0&
b111100 1
b1 9
b11110010 (
b110010 *
b110 +
1$
#1000
0$
#1001
16
1'
#1005
b11110010 %
b11110010 -
1&
1$
#1010
0$
#1014
0'
#1015
0&
b10001010 (
b110011 *
1$
#1020
0$
#1025
b10001010 %
b10001010 -
1&
1$
#1027
12
17
1'
#1030
0$
#1035
0&
b1000001 (
b110100 *
1$
#1040
0$
0'
#1045
b1000001 %
b1000001 -
1&
1$
#1050
0$
#1053
1.
1!
b111100 "
b111100 4
18
1'
#1055
0&
1/
b11011000 (
b110101 *
1$
#1056
b110 ,
#1060
0$
#1065
b11 3
b11011000 %
b11011000 -
1&
10
1$
#1066
0'
#1070
0$
#1075
05
0&
b11 9
b1111000 (
b110110 *
1$
#1079
0!
06
1'
#1080
0$
#1085
b1111000 %
b1111000 -
1&
1$
#1090
0$
#1092
0'
#1095
0&
b10001001 (
b110111 *
1$
#1100
0$
#1105
02
b10001001 %
b10001001 -
1&
07
1$
1'
#1110
0$
#1115
0&
b11101011 (
b111000 *
1$
#1118
0'
#1120
0$
#1125
b11101011 %
b11101011 -
1&
1$
#1130
0$
#1131
0.
08
1'
#1135
0&
0/
b10110110 (
b111001 *
1$
#1140
0$
#1144
0'
#1145
b0 3
b10110110 %
b10110110 -
1&
00
1$
#1150
0$
#1155
0#
0&
b0 9
b11000110 (
b111010 *
1$
#1157
1'
#1160
0$
#1165
b1 3
0#
b11000110 %
b11000110 -
1&
1$
#1170
0$
0'
#1175
15
1#
0&
b11000110 1
b1 9
b10101110 (
b111011 *
b111 +
1$
#1180
0$
#1183
16
1'
#1185
b10101110 %
b10101110 -
1&
1$
#1190
0$
#1195
0&
b10111100 (
b111100 *
1$
#1196
0'
#1200
0$
#1205
b10111100 %
b10111100 -
1&
1$
#1209
12
17
1'
#1210
0$
#1215
0&
b101010 (
b111101 *
1$
#1220
0$
#1222
0'
#1225
b101010 %
b101010 -
1&
1$
#1230
0$
#1235
1.
0&
1!
b11000110 "
b11000110 4
18
b1011 (
b111110 *
1$
1'
#1238
b111 ,
#1240
0$
#1245
b1011 %
b1011 -
1&
1/
1$
#1248
0'
#1250
0$
#1255
b11 3
0&
10
b1110001 (
b111111 *
1$
#1260
0$
#1261
0!
1'
#1265
05
b1110001 %
b1110001 -
1&
b11 9
1$
#1270
0$
#1274
0'
#1275
0&
b10000101 (
b1000000 *
1$
#1280
0$
#1285
b10000101 %
b10000101 -
1&
1$
#1287
06
1'
#1290
0$
#1295
0&
b1001111 (
b1000001 *
1$
#1300
0$
0'
#1305
b1001111 %
b1001111 -
1&
1$
#1310
0$
#1313
02
07
1'
#1315
0&
b111011 (
b1000010 *
1$
#1320
0$
#1325
b111011 %
b111011 -
1&
1$
#1326
0'
#1330
0$
#1335
0&
b111010 (
b1000011 *
1$
#1339
0.
08
1'
#1340
0$
#1345
b111010 %
b111010 -
1&
0/
1$
#1350
0$
#1352
0'
#1355
b0 3
0&
00
b1111110 (
b1000100 *
1$
#1360
0$
#1365
b1 3
0#
b1111110 %
b1111110 -
1&
b0 9
1$
1'
#1370
0$
#1375
15
1#
0&
b1111110 1
b1 9
b10101 (
b1000101 *
b1000 +
1$
#1378
0'
#1380
0$
#1385
b10101 %
b10101 -
1&
1$
#1390
0$
#1391
16
1'
#1395
0&
b11110001 (
b1000110 *
1$
#1400
0$
#1404
0'
#1405
b11110001 %
b11110001 -
1&
1$
#1410
0$
#1415
0&
b11011001 (
b1000111 *
1$
#1417
12
17
1'
#1420
0$
#1425
b11011001 %
b11011001 -
1&
1$
#1430
0$
0'
#1435
0&
b1100010 (
b1001000 *
1$
#1440
0$
#1443
1.
1!
b1111110 "
b1111110 4
18
1'
#1445
b1100010 %
b1100010 -
1&
1/
1$
#1446
b1000 ,
#1450
0$
#1455
b11 3
0&
10
b1001100 (
b1001001 *
1$
#1456
0'
#1460
0$
#1465
05
b1001100 %
b1001100 -
1&
b11 9
1$
#1469
0!
06
1'
#1470
0$
#1475
0&
b10011111 (
b1001010 *
1$
#1480
0$
#1482
0'
#1485
b10011111 %
b10011111 -
1&
1$
#1490
0$
#1495
02
0&
07
b10001111 (
b1001011 *
1$
1'
#1500
0$
#1505
b10001111 %
b10001111 -
1&
1$
#1508
0'
#1510
0$
#1515
0&
b11111000 (
b1001100 *
1$
#1520
0$
#1521
0.
08
1'
#1525
b11111000 %
b11111000 -
1&
0/
1$
#1530
0$
#1534
0'
#1535
b0 3
0&
00
b10110111 (
b1001101 *
1$
#1540
0$
#1545
b1 3
0#
b10110111 %
b10110111 -
1&
b0 9
1$
#1547
1'
#1550
0$
#1555
15
1#
0&
b10110111 1
b1 9
b10011111 (
b1001110 *
b1001 +
1$
#1560
0$
0'
#1565
b10011111 %
b10011111 -
1&
1$
#1570
0$
#1573
16
1'
#1575
0&
b1011100 (
b1001111 *
1$
#1580
0$
#1585
b1011100 %
b1011100 -
1&
1$
#1586
0'
#1590
0$
#1595
0&
b1011011 (
b1010000 *
1$
#1599
12
17
1'
#1600
0$
#1605
b1011011 %
b1011011 -
1&
1$
#1610
0$
#1612
0'
#1615
0&
b10001001 (
b1010001 *
1$
#1620
0$
#1625
1.
b10001001 %
b10001001 -
1&
1!
b10110111 "
b10110111 4
18
1$
1'
#1628
b1001 ,
#1630
0$
#1635
0&
1/
b1001001 (
b1010010 *
1$
#1638
0'
#1640
0$
#1645
b11 3
b1001001 %
b1001001 -
1&
10
1$
#1650
0$
#1651
0!
1'
#1655
05
0&
b11 9
b11010000 (
b1010011 *
1$
#1660
0$
#1664
0'
#1665
b11010000 %
b11010000 -
1&
1$
#1670
0$
#1675
0&
b11010111 (
b1010100 *
1$
#1677
06
1'
#1680
0$
#1685
b11010111 %
b11010111 -
1&
1$
#1690
0$
0'
#1695
0&
b1010001 (
b1010101 *
1$
#1700
0$
#1703
02
07
1'
#1705
b1010001 %
b1010001 -
1&
1$
#1710
0$
#1715
0&
b10010110 (
b1010110 *
1$
#1716
0'
#1720
0$
#1725
b10010110 %
b10010110 -
1&
1$
#1729
0.
08
1'
#1730
0$
#1735
0&
0/
b1100 (
b1010111 *
1$
#1740
0$
#1742
0'
#1745
b0 3
b1100 %
b1100 -
1&
00
1$
#1750
0$
#1755
0#
0&
b0 9
b11000010 (
b1011000 *
1$
1'
#1760
0$
#1765
b1 3
0#
b11000010 %
b11000010 -
1&
1$
#1768
0'
#1770
0$
#1775
15
1#
0&
b11000010 1
b1 9
b11001000 (
b1011001 *
b1010 +
1$
#1780
0$
#1781
16
1'
#1785
b11001000 %
b11001000 -
1&
1$
#1790
0$
#1794
0'
#1795
0&
b1110111 (
b1011010 *
1$
#1800
0$
#1805
b1110111 %
b1110111 -
1&
1$
#1807
12
17
1'
#1810
0$
#1815
0&
b111101 (
b1011011 *
1$
#1820
0$
0'
#1825
b111101 %
b111101 -
1&
1$
#1830
0$
#1833
1.
1!
b11000010 "
b11000010 4
18
1'
#1835
0&
1/
b10010 (
b1011100 *
1$
#1836
b1010 ,
#1840
0$
#1845
b11 3
b10010 %
b10010 -
1&
10
1$
#1846
0'
#1850
0$
#1855
05
0&
b11 9
b1111110 (
b1011101 *
1$
#1859
0!
06
1'
#1860
0$
#1865
b1111110 %
b1111110 -
1&
1$
#1870
0$
#1872
0'
#1875
0&
b1101101 (
b1011110 *
1$
#1880
0$
#1885
02
b1101101 %
b1101101 -
1&
07
1$
1'
#1890
0$
#1895
0&
b111001 (
b1011111 *
1$
#1898
0'
#1900
0$
#1905
b111001 %
b111001 -
1&
1$
#1910
0$
#1911
0.
08
1'
#1915
0&
0/
b11111 (
b1100000 *
1$
#1920
0$
#1924
0'
#1925
b0 3
b11111 %
b11111 -
1&
00
1$
#1930
0$
#1935
0#
0&
b0 9
b11010011 (
b1100001 *
1$
#1937
1'
#1940
0$
#1945
b1 3
0#
b11010011 %
b11010011 -
1&
1$
#1950
0$
0'
#1955
15
1#
0&
b11010011 1
b1 9
b10000101 (
b1100010 *
b1011 +
1$
#1960
0$
#1963
16
1'
#1965
b10000101 %
b10000101 -
1&
1$
#1970
0$
#1975
0&
b1111000 (
b1100011 *
1$
#1976
0'
#1980
0$
#1985
b1111000 %
b1111000 -
1&
1$
#1989
12
17
1'
